<svg width="100" height="100" viewBox="0 0 100 100" fill="none" xmlns="http://www.w3.org/2000/svg">
  <path d="M49.7372 47.8183C56.9368 47.8183 62.5376 41.9507 62.5376 34.7511C62.5376 27.5515 56.67 21.9507 49.4704 21.9507C46.0754 21.9507 42.8193 23.2992 40.4185 25.6997C38.0176 28.1002 36.6685 31.356 36.668 34.7511C36.6738 38.2153 38.0527 41.5359 40.5025 43.9852C42.9522 46.4346 46.273 47.813 49.7372 47.8183ZM49.4704 27.2847C51.5209 27.2863 53.4869 28.1015 54.9369 29.5514C56.3868 31.0013 57.202 32.9674 57.2036 35.0179C57.2036 39.2786 53.7312 42.4883 49.4704 42.4883C48.4893 42.4901 47.5175 42.2983 46.6107 41.9237C45.7038 41.5492 44.8799 40.9993 44.186 40.3057C43.4922 39.612 42.9421 38.7882 42.5673 37.8815C42.1925 36.9748 42.0004 36.003 42.002 35.0219C42.002 30.7511 45.4704 27.2847 49.4704 27.2847Z" fill="#ff8400"/>
  <path d="M89.2057 46.2195C84.0853 41.6564 77.3902 39.265 70.5377 39.5515H68.4053C67.9313 41.5431 67.117 43.4379 65.9981 45.1523C67.6029 44.8855 68.9329 44.8855 70.5317 44.8855C75.5921 44.6523 80.5799 46.158 84.6661 49.1523V68.3539H90.0001V47.0179L89.2057 46.2195Z" fill="#0069ab"/>
  <path d="M64.4053 22.4843C65.7373 19.2746 69.4725 17.6839 72.9389 19.0158C76.1385 20.3499 77.7393 24.0831 76.3992 27.5495C75.332 29.9567 72.9328 31.5615 70.5316 31.5615C69.998 31.5615 69.1996 31.5615 68.666 31.2947C68.9328 32.6267 68.9328 33.9607 68.9328 35.0279V36.6327C69.4664 36.6327 69.998 36.8995 70.5377 36.8995C77.2057 36.8995 82.5397 31.5655 82.5397 25.1643C82.5397 18.4822 77.2016 13.1482 70.8045 13.1482C68.743 13.1221 66.7128 13.6538 64.9287 14.6871C63.1447 15.7203 61.6732 17.2167 60.67 19.0179C62.1609 19.8764 63.438 21.0615 64.4053 22.4843Z" fill="#0069ab"/>
  <path d="M34.002 45.4191C32.8834 43.7045 32.0691 41.8098 31.5948 39.8183H29.4684C22.6678 39.5626 16.0149 41.8441 10.8024 46.2195L10 47.0219V68.3539H15.334V49.1523C19.6008 46.2195 24.4012 44.6187 29.4684 44.8855C30.9934 44.9156 32.5117 45.0943 34.002 45.4191Z" fill="#0069ab"/>
  <path d="M29.4684 36.6187C30.002 36.6187 30.5356 36.6187 31.0733 36.3519V34.747C31.0733 33.413 31.0733 32.081 31.3401 31.0138C30.8065 31.2806 30.0061 31.2806 29.4725 31.2806C26.0061 31.2806 23.0712 28.3458 23.0712 24.8794C23.0712 21.413 26.002 18.4822 29.4684 18.4822C30.769 18.4878 32.0402 18.8696 33.1287 19.5815C34.2172 20.2934 35.0764 21.305 35.6028 22.4943C36.668 21.1603 38.2688 19.8263 39.6028 18.7591C36.1364 13.1482 28.9348 11.2826 23.334 14.749C17.7332 18.2154 15.8676 25.4171 19.334 31.0179C20.3961 32.7468 21.8877 34.1714 23.6637 35.1529C25.4396 36.1343 27.4394 36.6393 29.4684 36.6187Z" fill="#0069ab"/>
  <path d="M71.6049 62.2195L71.0713 61.4171C65.7373 55.5515 58.2709 52.0831 50.2709 52.3499C42.2689 52.0831 34.5357 55.5595 29.2077 61.4171L28.6741 62.2195V82.4803C28.669 83.077 28.7828 83.6689 29.0088 84.2212C29.2349 84.7735 29.5686 85.2753 29.9906 85.6973C30.4126 86.1193 30.9144 86.4531 31.4668 86.6791C32.0191 86.9052 32.6109 87.019 33.2077 87.0139H67.3381C69.7453 87.0139 71.8717 84.8815 71.8717 82.4803V62.2195H71.6049ZM66.2709 81.6879H34.0021V64.0871C38.2689 59.8203 44.1365 57.6859 50.2709 57.6859C56.1365 57.4191 62.0041 59.8203 66.2709 64.0871V81.6879Z" fill="#ff8400"/>
</svg>
