<svg width="100" height="100" viewBox="0 0 100 100" fill="none" xmlns="http://www.w3.org/2000/svg">
  <path d="M89.038 34.2926H55.1832V34.1958H49.2885V34.2926H38.0296C37.2479 34.2926 36.4982 34.6032 35.9454 35.1559C35.3927 35.7086 35.0822 36.4583 35.0822 37.24V84.1053H34.9474V86.1516C34.9474 87.1706 35.3522 88.1478 36.0728 88.8684C36.7933 89.5889 37.7706 89.9937 38.7896 89.9937H89.038C89.8197 89.9937 90.5693 89.6832 91.1221 89.1304C91.6748 88.5777 91.9853 87.828 91.9853 87.0463V37.2379C91.9848 36.4566 91.674 35.7074 91.1213 35.1552C90.5687 34.6029 89.8193 34.2926 89.038 34.2926ZM59.6759 40.1874H67.3896V53.0042H59.6759V40.1874ZM86.1053 84.1053H40.9727V40.1832H53.7874V55.9453C53.7874 56.727 54.098 57.4766 54.6507 58.0294C55.2034 58.5821 55.9531 58.8926 56.7348 58.8926H70.3369C71.1186 58.8926 71.8683 58.5821 72.421 58.0294C72.9738 57.4766 73.2843 56.727 73.2843 55.9453V40.1832H86.1053V84.1053Z" fill="#ff8400"/>
  <path d="M31.5789 84.1053H13.8947V15.8947H21.8526V27.5221C21.8526 28.3038 22.1632 29.0535 22.7159 29.6062C23.2686 30.1589 24.0183 30.4695 24.8 30.4695H38.4C39.1817 30.4695 39.9314 30.1589 40.4841 29.6062C41.0368 29.0535 41.3474 28.3038 41.3474 27.5221V15.8947H49.3053V30.8421H55.2V12.9474C55.2 12.1657 54.8895 11.416 54.3367 10.8633C53.784 10.3105 53.0343 10 52.2526 10H10.9474C10.1657 10 9.416 10.3105 8.86326 10.8633C8.31053 11.416 8 12.1657 8 12.9474V87.0526C8 87.8343 8.31053 88.584 8.86326 89.1367C9.416 89.6895 10.1657 90 10.9474 90H31.5789V84.1053ZM27.7347 15.8947H35.4484V24.5768H27.7347V15.8947Z" fill="#0069ab"/>
</svg>
