<svg width="100" height="100" viewBox="0 0 100 100" fill="none" xmlns="http://www.w3.org/2000/svg">
  <path d="M23.9968 68.8788C25.6257 68.8792 27.2181 68.3966 28.5728 67.4921C29.9275 66.5876 30.9836 65.3017 31.6076 63.7971C32.2316 62.2925 32.3954 60.6366 32.0785 59.0388C31.7615 57.4411 30.9779 55.9731 29.8268 54.8206C28.6757 53.6681 27.2088 52.8828 25.6114 52.5639C24.014 52.245 22.358 52.4069 20.8526 53.029C19.3472 53.6512 18.06 54.7057 17.1539 56.0593C16.2477 57.4129 15.7632 59.0047 15.7616 60.6336C15.7621 62.8185 16.6296 64.9139 18.1736 66.4597C19.7176 68.0056 21.8119 68.8756 23.9968 68.8788ZM23.9968 57.3576C24.6472 57.3572 25.2831 57.5498 25.824 57.9111C26.3649 58.2724 26.7863 58.7861 27.0351 59.3871C27.2838 59.9881 27.3486 60.6493 27.2212 61.2872C27.0938 61.925 26.78 62.5107 26.3195 62.9701C25.859 63.4294 25.2726 63.7418 24.6344 63.8676C23.9963 63.9935 23.3352 63.9271 22.7348 63.6769C22.1344 63.4267 21.6217 63.0039 21.2618 62.4622C20.9018 61.9204 20.7107 61.2841 20.7127 60.6336C20.7159 59.7644 21.0632 58.9317 21.6786 58.3178C22.294 57.7039 23.1275 57.3586 23.9968 57.3576Z" fill="#0069ab"/>
  <path d="M23.9967 73.5277C20.2856 73.5309 16.7273 75.0066 14.1031 77.6308C11.4789 80.255 10.0032 83.8133 10 87.5245V90H37.9935V87.5245C37.9903 83.8133 36.5146 80.255 33.8904 77.6308C31.2662 75.0066 27.7079 73.5309 23.9967 73.5277ZM15.2953 85.0489C15.8319 83.1536 16.9725 81.4852 18.5437 80.2971C20.1149 79.109 22.0309 78.4661 24.0007 78.4661C25.9706 78.4661 27.8866 79.109 29.4578 80.2971C31.029 81.4852 32.1696 83.1536 32.7062 85.0489H15.2953Z" fill="#0069ab"/>
  <path d="M76.0533 68.8788C77.6821 68.8788 79.2743 68.3959 80.6287 67.4911C81.9832 66.5864 83.0389 65.3004 83.6626 63.7957C84.2863 62.291 84.4499 60.6352 84.1327 59.0376C83.8155 57.44 83.0318 55.9722 81.8806 54.8199C80.7294 53.6676 79.2625 52.8825 77.6652 52.5637C76.0678 52.245 74.4119 52.407 72.9066 53.0292C71.4013 53.6514 70.1143 54.706 69.2082 56.0595C68.3021 57.413 67.8177 59.0048 67.8161 60.6336C67.8161 62.819 68.6837 64.915 70.2282 66.461C71.7728 68.007 73.8679 68.8767 76.0533 68.8788ZM76.0533 57.3576C76.7037 57.3572 77.3396 57.5498 77.8805 57.9111C78.4213 58.2724 78.8428 58.7861 79.0916 59.3871C79.3403 59.9881 79.4051 60.6493 79.2777 61.2872C79.1503 61.925 78.8365 62.5107 78.376 62.9701C77.9155 63.4294 77.3291 63.7418 76.6909 63.8676C76.0528 63.9935 75.3916 63.9271 74.7913 63.6769C74.1909 63.4267 73.6782 63.0039 73.3183 62.4622C72.9583 61.9204 72.7672 61.2841 72.7692 60.6336C72.7724 59.7644 73.1197 58.9317 73.7351 58.3178C74.3505 57.7039 75.184 57.3586 76.0533 57.3576Z" fill="#0069ab"/>
  <path d="M76.0533 73.5277C72.3421 73.5309 68.7838 75.0066 66.1596 77.6308C63.5354 80.255 62.0597 83.8133 62.0565 87.5245V90H90.05V87.5245C90.0469 83.8133 88.5712 80.255 85.947 77.6308C83.3228 75.0066 79.7645 73.5309 76.0533 73.5277ZM67.3518 85.0489C67.8885 83.1536 69.029 81.4852 70.6002 80.2971C72.1714 79.109 74.0874 78.4661 76.0573 78.4661C78.0271 78.4661 79.9432 79.109 81.5144 80.2971C83.0856 81.4852 84.2261 83.1536 84.7627 85.0489H67.3518Z" fill="#0069ab"/>
  <path d="M50.025 26.4743C51.6543 26.4743 53.2469 25.9911 54.6016 25.086C55.9562 24.1808 57.012 22.8942 57.6354 21.3889C58.2588 19.8837 58.4218 18.2273 58.1038 16.6294C57.7858 15.0315 57.0011 13.5638 55.8489 12.4119C54.6967 11.26 53.2288 10.4756 51.6308 10.158C50.0328 9.84043 48.3765 10.0038 46.8714 10.6276C45.3663 11.2514 44.08 12.3074 43.1751 13.6623C42.2703 15.0171 41.7875 16.6099 41.7879 18.2392C41.7911 20.4226 42.66 22.5157 44.2041 24.0595C45.7483 25.6032 47.8416 26.4717 50.025 26.4743ZM50.025 14.9531C50.675 14.9527 51.3106 15.1451 51.8512 15.5059C52.3919 15.8668 52.8134 16.3798 53.0624 16.9802C53.3114 17.5807 53.3768 18.2414 53.2502 18.879C53.1236 19.5166 52.8108 20.1023 52.3513 20.562C51.8919 21.0218 51.3063 21.335 50.6689 21.4619C50.0314 21.5889 49.3705 21.5239 48.77 21.2753C48.1694 21.0266 47.6561 20.6054 47.2949 20.065C46.9338 19.5246 46.741 18.8892 46.741 18.2392C46.742 17.3683 47.0883 16.5334 47.7039 15.9174C48.3195 15.3015 49.1542 14.9547 50.025 14.9531Z" fill="#0069ab"/>
  <path d="M64.0217 45.1199C64.0217 41.4078 62.5471 37.8476 59.9222 35.2227C57.2973 32.5978 53.7371 31.1232 50.025 31.1232C46.3128 31.1232 42.7527 32.5978 40.1278 35.2227C37.5029 37.8476 36.0282 41.4078 36.0282 45.1199V47.5975H64.0217V45.1199ZM41.3235 42.6444C41.8602 40.7491 43.0007 39.0806 44.5719 37.8925C46.1431 36.7044 48.0591 36.0616 50.029 36.0616C51.9988 36.0616 53.9148 36.7044 55.486 37.8925C57.0572 39.0806 58.1978 40.7491 58.7344 42.6444H41.3235Z" fill="#0069ab"/>
  <path d="M53.223 64.6681V51.9542H47.6235V64.6681L36.6106 71.0261L39.4104 75.8752L50.4233 69.5172L61.4342 75.8752L64.2339 71.0261L53.223 64.6681Z" fill="#ff8400"/>
</svg>
