<svg width="100" height="100" viewBox="0 0 100 100" fill="none" xmlns="http://www.w3.org/2000/svg">
  <path d="M83.186 58.8747H89.4709V29.9618C89.4709 28.6063 88.785 27.4157 87.6107 26.9089L51.0899 10.2564C50.2193 9.91454 49.2516 9.91454 48.381 10.2564L11.8602 26.9089C10.6696 27.4157 10 28.6063 10 29.9618V86.5116C10.0048 87.4106 10.364 88.2715 10.9995 88.9075C11.6351 89.5434 12.4958 89.9031 13.3948 89.9084C14.2942 89.9036 15.1554 89.5442 15.7914 88.9082C16.4274 88.2722 16.7869 87.411 16.7917 86.5116V32.17L50.0784 17.048L83.186 32.166V58.8747Z" fill="#0069ab"/>
  <path d="M53.7745 62.9453H33.1227C32.2751 62.9501 31.4635 63.2889 30.8642 63.8883C30.2648 64.4876 29.926 65.2991 29.9212 66.1467V86.7985C29.926 87.6461 30.2648 88.4576 30.8642 89.057C31.4635 89.6564 32.2751 89.9952 33.1227 90H53.7745C54.6221 89.9952 55.4336 89.6564 56.0329 89.057C56.6323 88.4576 56.9711 87.6461 56.9759 86.7985V66.1467C56.9711 65.2991 56.6323 64.4876 56.0329 63.8883C55.4336 63.2889 54.6221 62.9501 53.7745 62.9453ZM50.573 83.768H36.3262V69.5212H50.573V83.768Z" fill="#0069ab"/>
  <path d="M68.6319 30.9916H47.9801C47.1325 30.9965 46.321 31.3353 45.7216 31.9347C45.1223 32.534 44.7834 33.3455 44.7786 34.1931V54.8449C44.7834 55.6925 45.1223 56.504 45.7216 57.1034C46.321 57.7027 47.1325 58.0416 47.9801 58.0464H68.6319C69.4795 58.0416 70.291 57.7027 70.8904 57.1034C71.4897 56.504 71.8286 55.6925 71.8334 54.8449V34.1931C71.8286 33.3455 71.4897 32.534 70.8904 31.9347C70.291 31.3353 69.4795 30.9965 68.6319 30.9916ZM65.4304 51.8144H51.1836V37.5676H65.4304V51.8144Z" fill="#0069ab"/>
  <path d="M86.3732 62.9453H65.7214C64.8738 62.9501 64.0623 63.2889 63.4629 63.8883C62.8636 64.4876 62.5247 65.2991 62.5199 66.1467V86.7985C62.5247 87.6461 62.8636 88.4576 63.4629 89.057C64.0623 89.6564 64.8738 89.9952 65.7214 90H86.3732C87.2215 89.9963 88.0341 89.6579 88.6343 89.0584C89.2345 88.459 89.5739 87.6468 89.5787 86.7985V66.1467C89.5766 65.2976 89.238 64.4839 88.6372 63.8839C88.0364 63.2838 87.2223 62.9463 86.3732 62.9453ZM83.1717 83.768H68.9249V69.5212H83.1717V83.768Z" fill="#ff8400"/>
</svg>
