<svg width="100" height="100" viewBox="0 0 100 100" fill="none" xmlns="http://www.w3.org/2000/svg">
  <path d="M75.0005 19.1244V35.1569C75.0005 35.879 74.7137 36.5715 74.203 37.0821C73.6924 37.5928 72.9999 37.8796 72.2778 37.8796H58.968C58.2459 37.8796 57.5534 37.5928 57.0427 37.0821C56.5321 36.5715 56.2453 35.879 56.2453 35.1569V19.1244H75.0005Z" fill="#ff8400"/>
  <path d="M90.6247 84.7496H40.6258C38.1393 84.7496 35.7547 83.7618 33.9964 82.0036C32.2382 80.2454 31.2505 77.8607 31.2505 75.3742V25.3754C31.2505 22.8889 32.2382 20.5042 33.9964 18.746C35.7547 16.9878 38.1393 16 40.6258 16H90.6247C93.1112 16 95.4958 16.9878 97.2541 18.746C99.0123 20.5042 100 22.8889 100 25.3754V75.3742C100 77.8607 99.0123 80.2454 97.2541 82.0036C95.4958 83.7618 93.1112 84.7496 90.6247 84.7496ZM40.6258 22.251C40.2153 22.2507 39.8088 22.3313 39.4295 22.4882C39.0501 22.645 38.7055 22.8751 38.4151 23.1653C38.1247 23.4554 37.8944 23.8 37.7372 24.1792C37.5801 24.5584 37.4992 24.9649 37.4992 25.3754V75.3742C37.4992 75.7847 37.5801 76.1912 37.7372 76.5704C37.8944 76.9496 38.1247 77.2941 38.4151 77.5843C38.7055 77.8744 39.0501 78.1045 39.4295 78.2614C39.8088 78.4183 40.2153 78.4989 40.6258 78.4986H90.6247C91.0351 78.4989 91.4415 78.4183 91.8207 78.2614C92.1999 78.1045 92.5444 77.8743 92.8346 77.5841C93.1248 77.294 93.3549 76.9494 93.5118 76.5702C93.6687 76.191 93.7493 75.7846 93.749 75.3742V25.3754C93.7493 24.965 93.6687 24.5586 93.5118 24.1794C93.3549 23.8002 93.1248 23.4556 92.8346 23.1654C92.5444 22.8752 92.1999 22.6451 91.8207 22.4882C91.4415 22.3313 91.0351 22.2507 90.6247 22.251H40.6258Z" fill="#ff8400"/>
  <path d="M53.1255 72.2498H46.8745C46.0601 72.2279 45.2865 71.889 44.7183 71.3052C44.15 70.7215 43.8321 69.939 43.8321 69.1244C43.8321 68.3097 44.15 67.5272 44.7183 66.9435C45.2865 66.3597 46.0601 66.0208 46.8745 65.9989H53.1255C53.9399 66.0208 54.7135 66.3597 55.2817 66.9435C55.8499 67.5272 56.1679 68.3097 56.1679 69.1244C56.1679 69.939 55.8499 70.7215 55.2817 71.3052C54.7135 71.889 53.9399 72.2279 53.1255 72.2498Z" fill="#ff8400"/>
  <path d="M21.8751 53.4992H15.6241C15.2138 53.4992 14.8075 53.4183 14.4284 53.2613C14.0494 53.1043 13.7049 52.8742 13.4148 52.5841C13.1247 52.2939 12.8945 51.9495 12.7375 51.5704C12.5805 51.1914 12.4997 50.7851 12.4997 50.3748C12.4997 49.9645 12.5805 49.5582 12.7375 49.1792C12.8945 48.8001 13.1247 48.4557 13.4148 48.1655C13.7049 47.8754 14.0494 47.6453 14.4284 47.4883C14.8075 47.3313 15.2138 47.2504 15.6241 47.2504H21.8751C22.2853 47.2504 22.6916 47.3313 23.0707 47.4883C23.4498 47.6453 23.7942 47.8754 24.0843 48.1655C24.3744 48.4557 24.6046 48.8001 24.7616 49.1792C24.9186 49.5582 24.9994 49.9645 24.9994 50.3748C24.9994 50.7851 24.9186 51.1914 24.7616 51.5704C24.6046 51.9495 24.3744 52.2939 24.0843 52.5841C23.7942 52.8742 23.4498 53.1043 23.0707 53.2613C22.6916 53.4183 22.2853 53.4992 21.8751 53.4992Z" fill="#0069ab"/>
  <path d="M21.875 40.9994H9.37528C8.54665 40.9994 7.75195 40.6703 7.16602 40.0843C6.58009 39.4984 6.25092 38.7037 6.25092 37.8751C6.25092 37.0465 6.58009 36.2518 7.16602 35.6658C7.75195 35.0799 8.54665 34.7507 9.37528 34.7507H21.875C22.7036 34.7507 23.4983 35.0799 24.0843 35.6658C24.6702 36.2518 24.9994 37.0465 24.9994 37.8751C24.9994 38.7037 24.6702 39.4984 24.0843 40.0843C23.4983 40.6703 22.7036 40.9994 21.875 40.9994Z" fill="#0069ab"/>
  <path d="M21.8751 28.4997H3.12436C2.29573 28.4997 1.50104 28.1706 0.915105 27.5846C0.329173 26.9987 0 26.204 0 25.3754C0 24.5467 0.329173 23.752 0.915105 23.1661C1.50104 22.5802 2.29573 22.251 3.12436 22.251H21.8751C22.7037 22.251 23.4984 22.5802 24.0843 23.1661C24.6703 23.752 24.9994 24.5467 24.9994 25.3754C24.9994 26.204 24.6703 26.9987 24.0843 27.5846C23.4984 28.1706 22.7037 28.4997 21.8751 28.4997Z" fill="#0069ab"/>
</svg>
