<svg width="30" height="30" viewBox="0 0 30 30" fill="none" xmlns="http://www.w3.org/2000/svg">
  <path d="M0.951254 7.73961C1.7417 6.80826 2.86691 6.33159 4.00112 6.33159C4.91348 6.33159 5.83384 6.64337 6.58631 7.27993L15.0004 14.4269L23.4145 7.28093C25.0964 5.85193 27.6196 6.05678 29.0496 7.73961C30.4786 9.42443 30.2727 11.9447 28.5899 13.3757L17.5876 22.7201C16.0957 23.9882 13.9042 23.9882 12.4132 22.7201L1.40993 13.3757C-0.272889 11.9447 -0.477745 9.42343 0.951254 7.73961Z" fill="#ecf3f9"/>
</svg>
