<svg width="120" height="120" viewBox="0 0 120 120" fill="none" xmlns="http://www.w3.org/2000/svg">
  <path d="M117.341 67.0014L115.085 63.9114C113.221 61.361 113.196 57.9032 115.011 55.3037L117.218 52.1892C119.769 48.5597 118.591 43.5324 114.668 41.4234L111.308 39.6086C108.512 38.1127 106.992 34.9982 107.507 31.8837L108.144 28.1071C108.88 23.7419 105.619 19.6956 101.18 19.5239L97.3542 19.3522C94.1906 19.2296 91.4685 17.0716 90.5857 14.0306L89.5312 10.3521C88.305 6.08504 83.621 3.87793 79.5256 5.64362L76.0187 7.16407C73.1004 8.41477 69.7407 7.67907 67.6072 5.30029L65.0567 2.45556C62.0894 -0.855105 56.9149 -0.806058 53.9966 2.52913L51.4952 5.42291C49.4107 7.80168 46.051 8.61096 43.1327 7.40931L39.6013 5.96242C35.5059 4.2703 30.8465 6.55099 29.6693 10.8426L28.6639 14.5211C27.8546 17.6111 25.1815 19.7937 22.018 19.9653L18.1924 20.186C13.7536 20.4313 10.5655 24.5267 11.3748 28.8674L12.0615 32.6194C12.6255 35.7339 11.1541 38.8729 8.38296 40.3934L5.04776 42.2572C1.17305 44.4152 0.0449737 49.4671 2.66899 53.0475L4.92515 56.1375C6.78893 58.6879 6.81345 62.1457 4.99872 64.7452L2.7916 67.8597C0.241162 71.4892 1.41829 76.5165 5.34205 78.6255L8.70176 80.4402C11.4974 81.9362 13.0179 85.0506 12.5029 88.1651L11.8408 91.9172C11.1051 96.2824 14.3667 100.329 18.8054 100.5L22.6311 100.672C25.7946 100.795 28.5167 102.953 29.3996 105.994L30.4541 109.672C31.6803 113.939 36.3643 116.146 40.4597 114.381L43.9665 112.86C46.8848 111.61 50.2445 112.345 52.3781 114.7L54.9285 117.544C57.8959 120.855 63.0703 120.806 65.9886 117.471L68.49 114.577C70.5745 112.198 73.9342 111.389 76.8525 112.591L80.3839 114.037C84.4793 115.73 89.1388 113.449 90.3159 109.157L91.3214 105.479C92.1552 102.438 94.8528 100.255 98.0163 100.059L101.842 99.8383C106.281 99.5931 109.469 95.4977 108.659 91.157L107.973 87.4049C107.409 84.2904 108.88 81.1514 111.651 79.631L114.987 77.7672C118.837 75.6582 119.94 70.5818 117.341 67.0014ZM60.0049 98.7593C38.6204 98.7593 21.2823 81.4212 21.2823 60.0367C21.2823 38.6522 38.6204 21.3141 60.0049 21.3141C81.3894 21.3141 98.7275 38.6522 98.7275 60.0367C98.7275 81.4212 81.3894 98.7593 60.0049 98.7593Z" fill="white"/>
  <path d="M55.0511 61.0667L51.6178 57.6089C49.5824 55.5489 46.2472 55.5489 44.1872 57.5844C42.1272 59.6198 42.1272 62.955 44.1627 65.015L47.596 68.4728L51.4216 72.2984C53.408 74.3094 56.6451 74.3094 58.6561 72.323L62.4817 68.5218L75.8225 55.2546C77.8825 53.2192 77.8825 49.884 75.847 47.824C73.8116 45.764 70.4764 45.764 68.4164 47.7995L55.0511 61.0667Z" fill="#ff8400"/>
</svg>
