<svg id="close" width="20" height="20" viewBox="0 0 20 20" xmlns="http://www.w3.org/2000/svg">
  <path d="M11.1047 10L19.7709 1.33372C20.0761 1.0286 20.0761 0.533915 19.7709 0.228838C19.4658 -0.0762402 18.9711 -0.0762792 18.6661 0.228838L9.99975 8.89516L1.33347 0.228838C1.02836 -0.0762792 0.533671 -0.0762792 0.228593 0.228838C-0.0764842 0.533954 -0.0765233 1.02864 0.228593 1.33372L8.89487 10L0.228593 18.6663C-0.0765233 18.9714 -0.0765233 19.4661 0.228593 19.7712C0.381132 19.9237 0.581093 20 0.781053 20C0.981014 20 1.18094 19.9237 1.33351 19.7712L9.99975 11.1049L18.666 19.7712C18.8186 19.9237 19.0185 20 19.2185 20C19.4184 20 19.6184 19.9237 19.7709 19.7712C20.0761 19.4661 20.0761 18.9714 19.7709 18.6663L11.1047 10Z"/>
</svg>
