<svg width="100" height="100" viewBox="0 0 100 100" fill="none" xmlns="http://www.w3.org/2000/svg">
  <path d="M97.7839 55.8345L95.9038 53.2595C94.3506 51.1341 94.3302 48.2526 95.8425 46.0864L97.6818 43.491C99.8071 40.4664 98.8262 36.277 95.5564 34.5195L92.7566 33.0072C90.4269 31.7606 89.1598 29.1652 89.589 26.5698L90.1204 23.4226C90.7334 19.7849 88.0154 16.413 84.3165 16.2699L81.1284 16.1269C78.4921 16.0247 76.2237 14.2263 75.488 11.6922L74.6093 8.62676C73.5874 5.07086 69.6841 3.2316 66.2713 4.703L63.3489 5.97005C60.917 7.0123 58.1172 6.39921 56.3393 4.4169L54.2139 2.04629C51.7411 -0.712598 47.4291 -0.671725 44.9971 2.1076L42.9127 4.51908C41.1756 6.50139 38.3758 7.17579 35.9439 6.17441L33.0011 4.96867C29.5882 3.55857 25.7053 5.45914 24.7244 9.03549L23.8865 12.1009C23.2121 14.6759 20.9846 16.4947 18.3483 16.6378L15.1602 16.8217C11.4613 17.0261 8.80458 20.4389 9.47898 24.0561L10.0512 27.1829C10.5212 29.7783 9.29505 32.3941 6.98576 33.6611L4.20643 35.2143C0.977504 37.0127 0.0374376 41.2225 2.22411 44.2062L4.10425 46.7812C5.6574 48.9066 5.67784 51.7881 4.16556 53.9543L2.3263 56.5497C0.200927 59.5743 1.18187 63.7637 4.45166 65.5212L7.25143 67.0335C9.58116 68.2801 10.8482 70.8755 10.419 73.4709L9.86726 76.5977C9.25418 80.2353 11.9722 83.6073 15.6712 83.7503L18.8592 83.8934C21.4955 83.9956 23.7639 85.794 24.4996 88.3281L25.3784 91.3935C26.4002 94.9494 30.3035 96.7887 33.7163 95.3173L36.6387 94.0502C39.0706 93.008 41.8704 93.621 43.6484 95.5829L45.7737 97.9535C48.2465 100.712 52.5586 100.672 54.9905 97.8922L57.075 95.4808C58.812 93.4984 61.6118 92.824 64.0437 93.8254L66.9865 95.0312C70.3994 96.4412 74.2823 94.5407 75.2632 90.9643L76.1011 87.8989C76.7959 85.3648 79.0439 83.546 81.6802 83.3825L84.8682 83.1986C88.5672 82.9942 91.2239 79.5814 90.5495 75.9641L89.9773 72.8374C89.5073 70.242 90.7334 67.6262 93.0427 66.3591L95.8221 64.806C99.0305 63.0484 99.9502 58.8181 97.7839 55.8345ZM50.004 82.2994C32.1836 82.2994 17.7352 67.851 17.7352 50.0306C17.7352 32.2102 32.1836 17.7618 50.004 17.7618C67.8244 17.7618 82.2728 32.2102 82.2728 50.0306C82.2728 67.851 67.8244 82.2994 50.004 82.2994Z" fill="#ecf3f9"/>
  <path d="M45.876 50.8889L43.0149 48.0074C41.3187 46.2908 38.5394 46.2908 36.8228 47.987C35.1061 49.6832 35.1061 52.4625 36.8023 54.1792L39.6634 57.0607L42.8514 60.2487C44.5068 61.9245 47.2044 61.9245 48.8801 60.2692L52.0682 57.1015L63.1855 46.0455C64.9021 44.3493 64.9021 41.57 63.2059 39.8533C61.5097 38.1367 58.7304 38.1367 57.0138 39.8329L45.876 50.8889Z" fill="#ff8400"/>
</svg>
