<svg width="48" height="48" viewBox="0 0 48 48" fill="none" xmlns="http://www.w3.org/2000/svg">
  <path d="M34.7506 18.1887C33.7058 18.1887 32.7523 18.5874 32.0343 19.2405C31.3165 18.5874 30.3629 18.1887 29.3181 18.1887C28.2725 18.1887 27.3182 18.5876 26.5999 19.2407C26.3048 18.9722 25.9683 18.7497 25.6037 18.5774C26.9214 16.9608 27.6909 14.9091 27.6909 12.7386C27.6911 7.64437 23.5464 3.5 18.4518 3.5C13.3559 3.5 9.20996 7.64437 9.20996 12.7386C9.20996 16.2856 11.2656 19.5133 14.4101 21.0455V32.3139C14.4101 39.0332 19.8783 44.4998 26.5995 44.4998C33.3213 44.4998 38.79 39.0332 38.79 32.3139V22.2274C38.79 20.0004 36.9779 18.1887 34.7506 18.1887ZM11.8569 12.7386C11.8569 9.10357 14.8152 6.14636 18.4518 6.14636C22.0869 6.14636 25.0442 9.10357 25.0442 12.7386C25.0442 14.8031 24.0685 16.7168 22.4913 17.9458V12.7386C22.4913 10.5107 20.6791 8.69815 18.4516 8.69815C16.2231 8.69815 14.4099 10.5107 14.4099 12.7386V17.9454C12.8325 16.7168 11.8569 14.8031 11.8569 12.7386ZM36.143 32.3139C36.143 37.574 31.8617 41.8535 26.5995 41.8535C21.3378 41.8535 17.057 37.574 17.057 32.3139V20.2403C17.0593 20.196 17.0593 20.1518 17.057 20.1078V12.7386C17.057 11.9699 17.6827 11.3445 18.4518 11.3445C19.2197 11.3445 19.8446 11.9699 19.8446 12.7386V22.2274V25.1297C19.8446 25.8605 20.4371 26.4529 21.168 26.4529C21.8989 26.4529 22.4915 25.8605 22.4915 25.1297V22.2274C22.4915 21.4596 23.1162 20.8349 23.8839 20.8349C24.6517 20.8349 25.2762 21.4596 25.2762 22.2274V25.1297C25.2762 25.8605 25.8688 26.4529 26.5997 26.4529C27.3306 26.4529 27.9231 25.8605 27.9231 25.1297V22.2274C27.9231 21.4596 28.549 20.8349 29.3184 20.8349C30.0864 20.8349 30.7112 21.4596 30.7112 22.2274V25.1297C30.7112 25.8605 31.3038 26.4529 32.0347 26.4529C32.7656 26.4529 33.3581 25.8605 33.3581 25.1297V22.2274C33.3581 21.4596 33.983 20.8349 34.7509 20.8349C35.5187 20.8349 36.1434 21.4596 36.1434 22.2274V32.3139H36.143Z" fill="white"/>
</svg>
